\contentsline {section}{\numberline {1}Grammar}{3}
\contentsline {section}{\numberline {2}Directories}{4}
\contentsline {section}{\numberline {3}Library}{5}
\contentsline {section}{\numberline {4}Object references}{5}
\contentsline {section}{\numberline {5}Memory handling}{6}
\contentsline {section}{\numberline {6}Exceptions}{6}
\contentsline {section}{\numberline {7}Arithmetic types}{6}
\contentsline {section}{\numberline {8}Strings}{6}
