\relax 
\@writefile{toc}{\contentsline {section}{\numberline {1}Grammar}{3}}
\gdef \LT@i {\LT@entry 
    {1}{193.47498pt}\LT@entry 
    {1}{172.98131pt}}
\@writefile{toc}{\contentsline {section}{\numberline {2}Directories}{4}}
\newlabel{sec:directories}{{2}{4}}
\@writefile{toc}{\contentsline {section}{\numberline {3}Library}{5}}
\@writefile{toc}{\contentsline {section}{\numberline {4}Object references}{5}}
\@writefile{toc}{\contentsline {section}{\numberline {5}Memory handling}{6}}
\newlabel{sec:memory-handling}{{5}{6}}
\@writefile{toc}{\contentsline {section}{\numberline {6}Exceptions}{6}}
\newlabel{sec:exceptions}{{6}{6}}
\@writefile{toc}{\contentsline {section}{\numberline {7}Arithmetic types}{6}}
\newlabel{sec:arithmetics}{{7}{6}}
\@writefile{toc}{\contentsline {section}{\numberline {8}Strings}{6}}
\newlabel{sec:strings}{{8}{6}}
